@startuml

class GUI.LexHigh
class Programa.AperturaA
class Programa.Grafica
class Programa.Lexer
class Programa.LexerCup
class Programa.MAINTEST
class Programa.Main
class Programa.MainLex
class Programa.ProdFinal
class Programa.Sintax
class Programa.Ventana
class Programa.sym
class RecursosGUI.JPanel
class RecursosGUI.LinePainter
class RecursosGUI.TextLineNumber
class RecursosGUI.ejemAyuda
class RecursosGUI.ejemPlantillas
class RecursosGUI.wordsEditor
class com.formdev.flatlaf.intellijthemes.FlatArcOrangeIJTheme
class com.formdev.flatlaf.intellijthemes.FlatHiberbeeDarkIJTheme
class com.formdev.flatlaf.intellijthemes.FlatLightFlatIJTheme
class com.formdev.flatlaf.intellijthemes.FlatSolarizedLightIJTheme
class com.formdev.flatlaf.intellijthemes.FlatVuesionIJTheme
class java.awt.AWTException
class java.awt.Color
class java.awt.Component
class java.awt.Font
class java.awt.GraphicsEnvironment
class java.awt.Robot
class java.awt.event.KeyEvent
class java.io.BufferedReader
class java.io.ByteArrayInputStream
class java.io.File
class java.io.FileNotFoundException
class java.io.FileReader
class java.io.FileWriter
class java.io.IOException
class java.io.PrintWriter
class java.io.Reader
class java.io.StringReader
class java.net.URL
class java.nio.file.Files
class java.nio.file.Path
class java.nio.file.Paths
class java.util.ArrayList
class java.util.HashMap
class java.util.LinkedList
class java.util.List
class java.util.Objects
class java.util.Scanner
class java.util.logging.Level
class java.util.logging.Logger
class java.util.regex.Matcher
class java.util.regex.Pattern
class java_cup.runtime.Symbol
class java_cup.runtime.lr_parser
class javax.swing.DefaultListModel
class javax.swing.ImageIcon
class javax.swing.JFileChooser
class javax.swing.JFrame
class javax.swing.JOptionPane
class javax.swing.JScrollPane
class javax.swing.JTextPane
class javax.swing.SwingUtilities
class javax.swing.UIManager
class javax.swing.event.UndoableEditEvent
class javax.swing.filechooser.FileSystemView
class javax.swing.plaf.FontUIResource
class javax.swing.text.AttributeSet
class javax.swing.text.BadLocationException
class javax.swing.text.DefaultStyledDocument
class javax.swing.text.SimpleAttributeSet
class javax.swing.text.Style
class javax.swing.text.StyleConstants
class javax.swing.text.StyleContext
class javax.swing.text.StyledDocument
class javax.swing.undo.CannotRedoException
class javax.swing.undo.CannotUndoException
class javax.swing.undo.UndoManager
class org.fife.ui.autocomplete.AutoCompletion
class org.fife.ui.autocomplete.BasicCompletion
class org.fife.ui.autocomplete.CompletionProvider
class org.fife.ui.autocomplete.DefaultCompletionProvider
class org.fife.ui.autocomplete.ShorthandCompletion
class semantico.Asigna
class semantico.DecAsigna
class semantico.Declara
class semantico.Ingresa
class semantico.Merror
class semantico.Mientras
class semantico.Muestra
class semantico.Operacion
class semantico.Para
class semantico.Repite
class semantico.Si
class semantico.Simbolo
class semantico.Simbolo.Tipo
class semantico.TablaS
enum Programa.Tokens
interface Highlighter.HighlightPainter
interface RecursosGUI.CaretListener
interface RecursosGUI.DocumentListener
interface RecursosGUI.MouseListener
interface RecursosGUI.MouseMotionListener
interface RecursosGUI.PropertyChangeListener
interface java_cup.runtime.Scanner
interface semantico.Sentencia
GUI.LexHigh ..> Programa.Lexer
GUI.LexHigh ..> java.awt.Color
GUI.LexHigh ..> java.awt.Component
GUI.LexHigh ..> java.io.ByteArrayInputStream
GUI.LexHigh ..> java.io.IOException
GUI.LexHigh ..> javax.swing.text.BadLocationException
GUI.LexHigh --|> javax.swing.text.DefaultStyledDocument
GUI.LexHigh ..> javax.swing.text.Style
GUI.LexHigh ..> javax.swing.text.StyleConstants
GUI.LexHigh ..> javax.swing.text.StyleContext
GUI.LexHigh ..> javax.swing.text.StyledDocument
GUI.LexHigh ..> Programa.Tokens
Programa.AperturaA ..> java.io.File
Programa.AperturaA ..> java.io.FileNotFoundException
Programa.AperturaA ..> java.io.PrintWriter
Programa.Grafica ..> GUI.LexHigh
Programa.Grafica ..> RecursosGUI.LinePainter
Programa.Grafica ..> RecursosGUI.TextLineNumber
Programa.Grafica ..> RecursosGUI.ejemAyuda
Programa.Grafica ..> RecursosGUI.ejemPlantillas
Programa.Grafica ..> RecursosGUI.wordsEditor
Programa.Grafica ..> com.formdev.flatlaf.intellijthemes.FlatHiberbeeDarkIJTheme
Programa.Grafica ..> com.formdev.flatlaf.intellijthemes.FlatLightFlatIJTheme
Programa.Grafica ..> com.formdev.flatlaf.intellijthemes.FlatSolarizedLightIJTheme
Programa.Grafica ..> com.formdev.flatlaf.intellijthemes.FlatVuesionIJTheme
Programa.Grafica ..> java.awt.AWTException
Programa.Grafica ..> java.awt.Color
Programa.Grafica ..> java.awt.Font
Programa.Grafica ..> java.awt.GraphicsEnvironment
Programa.Grafica ..> java.awt.Robot
Programa.Grafica ..> java.awt.event.KeyEvent
Programa.Grafica ..> java.io.File
Programa.Grafica ..> java.io.FileWriter
Programa.Grafica ..> java.io.IOException
Programa.Grafica ..> java.io.StringReader
Programa.Grafica ..> java.net.URL
Programa.Grafica ..> java.util.LinkedList
Programa.Grafica ..> java.util.Scanner
Programa.Grafica ..> java.util.logging.Level
Programa.Grafica ..> java.util.logging.Logger
Programa.Grafica ..> java.util.regex.Matcher
Programa.Grafica ..> java.util.regex.Pattern
Programa.Grafica ..> java_cup.runtime.Symbol
Programa.Grafica ..> javax.swing.DefaultListModel
Programa.Grafica ..> javax.swing.ImageIcon
Programa.Grafica ..> javax.swing.JFileChooser
Programa.Grafica --|> javax.swing.JFrame
Programa.Grafica ..> javax.swing.JOptionPane
Programa.Grafica ..> javax.swing.SwingUtilities
Programa.Grafica ..> javax.swing.UIManager
Programa.Grafica ..> javax.swing.event.UndoableEditEvent
Programa.Grafica ..> javax.swing.filechooser.FileSystemView
Programa.Grafica ..> javax.swing.plaf.FontUIResource
Programa.Grafica ..> javax.swing.text.BadLocationException
Programa.Grafica ..> javax.swing.text.SimpleAttributeSet
Programa.Grafica ..> javax.swing.text.StyleConstants
Programa.Grafica ..> javax.swing.text.StyledDocument
Programa.Grafica ..> javax.swing.undo.CannotRedoException
Programa.Grafica ..> javax.swing.undo.CannotUndoException
Programa.Grafica ..> javax.swing.undo.UndoManager
Programa.Grafica ..> org.fife.ui.autocomplete.AutoCompletion
Programa.Grafica ..> org.fife.ui.autocomplete.BasicCompletion
Programa.Grafica ..> org.fife.ui.autocomplete.CompletionProvider
Programa.Grafica ..> org.fife.ui.autocomplete.DefaultCompletionProvider
Programa.Grafica ..> org.fife.ui.autocomplete.ShorthandCompletion
Programa.Grafica ..> semantico.TablaS
Programa.Grafica ..> semantico.Sentencia
Programa.Lexer ..> Programa.Tokens
Programa.LexerCup ..> java_cup.runtime.Symbol
Programa.LexerCup --|> java_cup.runtime.Scanner
Programa.MAINTEST ..> java.awt.GraphicsEnvironment
Programa.Main ..> java.io.File
Programa.Main ..> java.io.IOException
Programa.Main ..> java.nio.file.Files
Programa.Main ..> java.nio.file.Path
Programa.Main ..> java.nio.file.Paths
Programa.MainLex ..> java.io.File
Programa.MainLex ..> java.io.IOException
Programa.MainLex ..> java.nio.file.Files
Programa.MainLex ..> java.nio.file.Path
Programa.MainLex ..> java.nio.file.Paths
Programa.ProdFinal ..> com.formdev.flatlaf.intellijthemes.FlatArcOrangeIJTheme
Programa.ProdFinal ..> com.formdev.flatlaf.intellijthemes.FlatLightFlatIJTheme
Programa.ProdFinal ..> javax.swing.UIManager
Programa.Sintax ..> java.util.LinkedList
Programa.Sintax ..> java_cup.runtime.Symbol
Programa.Sintax --|> java_cup.runtime.lr_parser
Programa.Sintax ..> semantico.Asigna
Programa.Sintax ..> semantico.DecAsigna
Programa.Sintax ..> semantico.Declara
Programa.Sintax ..> semantico.Ingresa
Programa.Sintax ..> semantico.Merror
Programa.Sintax ..> semantico.Mientras
Programa.Sintax ..> semantico.Muestra
Programa.Sintax ..> semantico.Operacion
Programa.Sintax ..> semantico.Para
Programa.Sintax ..> semantico.Repite
Programa.Sintax ..> semantico.Si
Programa.Sintax ..> semantico.Simbolo.Tipo
Programa.Sintax ..> semantico.Sentencia
Programa.Ventana ..> GUI.LexHigh
Programa.Ventana ..> RecursosGUI.TextLineNumber
Programa.Ventana ..> java.awt.Color
Programa.Ventana ..> java.awt.Font
Programa.Ventana ..> java.awt.event.KeyEvent
Programa.Ventana ..> java.io.BufferedReader
Programa.Ventana ..> java.io.ByteArrayInputStream
Programa.Ventana ..> java.io.FileNotFoundException
Programa.Ventana ..> java.io.FileReader
Programa.Ventana ..> java.io.IOException
Programa.Ventana ..> java.io.Reader
Programa.Ventana ..> java.util.logging.Level
Programa.Ventana ..> java.util.logging.Logger
Programa.Ventana ..> java.util.regex.Matcher
Programa.Ventana ..> java.util.regex.Pattern
Programa.Ventana --|> javax.swing.JFrame
Programa.Ventana ..> javax.swing.JScrollPane
Programa.Ventana ..> javax.swing.JTextPane
Programa.Ventana ..> javax.swing.text.BadLocationException
Programa.Ventana ..> javax.swing.text.DefaultStyledDocument
Programa.Ventana ..> javax.swing.text.Style
Programa.Ventana ..> javax.swing.text.StyleConstants
Programa.Ventana ..> javax.swing.text.StyleContext
Programa.Ventana ..> javax.swing.text.StyledDocument
Programa.Ventana ..> javax.swing.undo.CannotUndoException
Programa.Ventana ..> javax.swing.undo.UndoManager
RecursosGUI.LinePainter --|> Highlighter.HighlightPainter
RecursosGUI.LinePainter --|> RecursosGUI.CaretListener
RecursosGUI.LinePainter --|> RecursosGUI.MouseListener
RecursosGUI.LinePainter --|> RecursosGUI.MouseMotionListener
RecursosGUI.TextLineNumber --|> RecursosGUI.JPanel
RecursosGUI.TextLineNumber ..> java.util.HashMap
RecursosGUI.TextLineNumber --|> RecursosGUI.CaretListener
RecursosGUI.TextLineNumber --|> RecursosGUI.DocumentListener
RecursosGUI.TextLineNumber --|> RecursosGUI.PropertyChangeListener
RecursosGUI.resPalabra ..> java.awt.Color
RecursosGUI.resPalabra ..> java.util.ArrayList
RecursosGUI.resPalabra ..> java.util.List
RecursosGUI.resPalabra ..> javax.swing.text.AttributeSet
RecursosGUI.resPalabra ..> javax.swing.text.BadLocationException
RecursosGUI.resPalabra ..> javax.swing.text.DefaultStyledDocument
RecursosGUI.resPalabra ..> javax.swing.text.Style
RecursosGUI.resPalabra ..> javax.swing.text.StyleConstants
RecursosGUI.resPalabra ..> javax.swing.text.StyleContext
semantico.Asigna --|> semantico.Sentencia
semantico.DecAsigna --|> semantico.Sentencia
semantico.Declara --|> semantico.Sentencia
semantico.Ingresa ..> javax.swing.JOptionPane
semantico.Ingresa --|> semantico.Sentencia
semantico.Merror --|> semantico.Sentencia
semantico.Mientras ..> java.util.LinkedList
semantico.Mientras --|> semantico.Sentencia
semantico.Muestra --|> semantico.Sentencia
semantico.Operacion ..> java.util.Objects
semantico.Operacion --|> semantico.Sentencia
semantico.Para ..> java.util.LinkedList
semantico.Para --|> semantico.Sentencia
semantico.Repite ..> java.util.LinkedList
semantico.Repite --|> semantico.Sentencia
semantico.Si ..> Programa.Grafica
semantico.Si ..> java.util.ArrayList
semantico.Si ..> java.util.LinkedList
semantico.Si ..> java.util.List
semantico.Si --|> semantico.Sentencia
semantico.TablaS --|> java.util.LinkedList
@enduml